COMPSCIX 415.2 Homework 5/Midterm
…
If we take the count of city from txhousing, we see that there are 46 cities.

count(txhousing, city)

## # A tibble: 46 x 2
##    city                      n
##    <chr>                 <int>
##  1 Abilene                 187
##  2 Amarillo                187
##  3 Arlington               187
##  4 Austin                  187
##  5 Bay Area                187
##  6 Beaumont                187
##  7 Brazoria County         187
##  8 Brownsville             187
##  9 Bryan-College Station   187
## 10 Collin County           187
## #  with 36 more rows

July of 2015 in Houston had the most sales in this dataset.

arrange(txhousing, desc(sales))

## # A tibble: 8,602 x 9
##    city     year month sales     volume median listings inventory  date
##    <chr>   <int> <int> <dbl>      <dbl>  <dbl>    <dbl>     <dbl> <dbl>
##  1 Houston  2015     7  8945 2568156780 217600    23875       3.4 2016.
##  2 Houston  2006     6  8628 1795898108 155200    36281       5.6 2006.
##  3 Houston  2013     7  8468 2168720825 187800    21497       3.3 2014.
##  4 Houston  2015     6  8449 2490238594 222400    22311       3.2 2015.
##  5 Houston  2013     5  8439 2121508529 186100    20526       3.3 2013.
##  6 Houston  2014     6  8391 2342443127 211200    19725       2.9 2014.
##  7 Houston  2014     7  8391 2278932511 199700    20214       3   2014.
##  8 Houston  2014     8  8167 2195184825 202400    20007       2.9 2015.
##  9 Houston  2013     8  8155 2083377894 186700    21366       3.3 2014.
## 10 Houston  2006     5  8040 1602621368 151200    35398       5.5 2006.
## #  with 8,592 more rows
…
We can see the proportion of missing sales to how many houses there are, in descencing order for each city.

missing_sales <- txhousing %>% group_by(city) %>% summarise(missing =(sum(is.na(sales)) / n() * 100))
arrange(missing_sales, desc(missing))

## # A tibble: 46 x 2
##    city               missing
##    <chr>                <dbl>
##  1 South Padre Island   62.0 
##  2 Kerrville            55.6 
##  3 Midland              40.1 
##  4 Odessa               38.5 
##  5 San Marcos           24.6 
##  6 Laredo               19.3 
##  7 Harlingen            13.4 
##  8 Waco                 10.2 
##  9 Texarkana             9.09
## 10 Brazoria County       7.49
## #  with 36 more rows
…
